<?xml version="1.0" encoding="UTF-8" standalone="no"?>
<svg
   xmlns:dc="http://purl.org/dc/elements/1.1/"
   xmlns:cc="http://creativecommons.org/ns#"
   xmlns:rdf="http://www.w3.org/1999/02/22-rdf-syntax-ns#"
   xmlns:svg="http://www.w3.org/2000/svg"
   xmlns="http://www.w3.org/2000/svg"
   xmlns:sodipodi="http://sodipodi.sourceforge.net/DTD/sodipodi-0.dtd"
   xmlns:inkscape="http://www.inkscape.org/namespaces/inkscape"
   version="1.1"
   id="svg2557"
   xml:space="preserve"
   width="125.22"
   height="194.02676"
   viewBox="0 0 125.22 194.02676"
   sodipodi:docname="step-1.svg"
   inkscape:version="1.0.1 (3bc2e813f5, 2020-09-07)"><metadata
     id="metadata2563"><rdf:RDF><cc:Work
         rdf:about=""><dc:format>image/svg+xml</dc:format><dc:type
           rdf:resource="http://purl.org/dc/dcmitype/StillImage" /><dc:title></dc:title></cc:Work></rdf:RDF></metadata><defs
     id="defs2561"><clipPath
       clipPathUnits="userSpaceOnUse"
       id="clipPath2575"><path
         d="M 0,0 H 730 V 224 H 0 Z"
         id="path2573" /></clipPath><clipPath
       clipPathUnits="userSpaceOnUse"
       id="clipPath2593"><path
         d="M 0,0 H 730 V 224 H 0 Z"
         id="path2591" /></clipPath><clipPath
       clipPathUnits="userSpaceOnUse"
       id="clipPath2611"><path
         d="M 0,0 H 730 V 224 H 0 Z"
         id="path2609" /></clipPath><clipPath
       clipPathUnits="userSpaceOnUse"
       id="clipPath2637"><path
         d="M 0,0 H 730 V 224 H 0 Z"
         id="path2635" /></clipPath><clipPath
       clipPathUnits="userSpaceOnUse"
       id="clipPath2655"><path
         d="M 0,0 H 730 V 224 H 0 Z"
         id="path2653" /></clipPath><clipPath
       clipPathUnits="userSpaceOnUse"
       id="clipPath2673"><path
         d="M 0,0 H 730 V 224 H 0 Z"
         id="path2671" /></clipPath></defs><sodipodi:namedview
     pagecolor="#ffffff"
     bordercolor="#666666"
     borderopacity="1"
     objecttolerance="10"
     gridtolerance="10"
     guidetolerance="10"
     inkscape:pageopacity="0"
     inkscape:pageshadow="2"
     inkscape:window-width="2550"
     inkscape:window-height="1409"
     id="namedview2559"
     showgrid="false"
     inkscape:zoom="1.9722204"
     inkscape:cx="115.59139"
     inkscape:cy="82.964275"
     inkscape:window-x="0"
     inkscape:window-y="0"
     inkscape:window-maximized="1"
     inkscape:current-layer="g2567"
     inkscape:document-rotation="0"
     fit-margin-top="0"
     fit-margin-left="0"
     fit-margin-right="0"
     fit-margin-bottom="0" /><g
     id="g2565"
     inkscape:groupmode="layer"
     inkscape:label="overview-1"
     transform="matrix(1.3333333,0,0,1.3333333,-223.63638,-85.705785)"><g
       id="g2567"><g
         id="g2569"><g
           id="g2571" /><g
           id="g2585"><g
             clip-path="url(#clipPath2575)"
             opacity="0.774278"
             id="g2583"><g
               id="g2581"><g
                 id="g2579"><path
                   d="m 235.941,151.184 h -66.929 l 27.179,-43.098 -27.179,-43.098 h 66.929 l 24.883,43.098 z"
                   style="fill:#f0e442;fill-opacity:1;fill-rule:nonzero;stroke:#000000;stroke-width:1.41732;stroke-linecap:butt;stroke-linejoin:miter;stroke-miterlimit:4;stroke-dasharray:none;stroke-opacity:1"
                   id="path2577" /></g></g></g></g></g><g
         id="g2699"><path
           d="m 168.27,160.664 h 74.695 v 48.594 H 168.27 Z"
           style="fill:none;stroke:#000000;stroke-width:1.08283;stroke-linecap:round;stroke-linejoin:miter;stroke-miterlimit:4;stroke-dasharray:2.16567, 2.16567;stroke-dashoffset:0;stroke-opacity:1"
           id="path2701" /></g><text
         transform="translate(172.71224,179.9666)"
         style="font-variant:normal;font-weight:normal;font-size:18px;font-family:'PT Mono';-inkscape-font-specification:PTMono-Regular;writing-mode:lr-tb;fill:#000000;fill-opacity:1;fill-rule:nonzero;stroke:none"
         id="text2707"><tspan
           x="0 10.8 21.6 32.400002"
           y="0"
           sodipodi:role="line"
           id="tspan2703">Pre-</tspan><tspan
           x="0 10.8 21.6 32.400002 43.200001 54"
           y="22.5"
           sodipodi:role="line"
           id="tspan2705">Filter</tspan></text></g></g></svg>
